…
``` r
iris <- as_tibble(iris)
iris
```

    ## # A tibble: 150 x 5
    ##    Sepal.Length Sepal.Width Petal.Length Petal.Width Species
    ##           <dbl>       <dbl>        <dbl>       <dbl> <fct>  
    ##  1          5.1         3.5          1.4         0.2 setosa 
    ##  2          4.9         3            1.4         0.2 setosa 
    ##  3          4.7         3.2          1.3         0.2 setosa 
    ##  4          4.6         3.1          1.5         0.2 setosa 
    ##  5          5           3.6          1.4         0.2 setosa 
    ##  6          5.4         3.9          1.7         0.4 setosa 
    ##  7          4.6         3.4          1.4         0.3 setosa 
    ##  8          5           3.4          1.5         0.2 setosa 
    ##  9          4.4         2.9          1.4         0.2 setosa 
    ## 10          4.9         3.1          1.5         0.1 setosa 
    ## # ... with 140 more rows

``` r
# Question 1 ----------------------------------------------

new_iris <- rename(iris, Sepal_Length = Sepal.Length, Sepal_Width = Sepal.Width, Petal_Length = Petal.Length, Petal_Width = Petal.Width)
new_iris
```

    ## # A tibble: 150 x 5
    ##    Sepal_Length Sepal_Width Petal_Length Petal_Width Species
    ##           <dbl>       <dbl>        <dbl>       <dbl> <fct>  
    ##  1          5.1         3.5          1.4         0.2 setosa 
    ##  2          4.9         3            1.4         0.2 setosa 
    ##  3          4.7         3.2          1.3         0.2 setosa 
    ##  4          4.6         3.1          1.5         0.2 setosa 
    ##  5          5           3.6          1.4         0.2 setosa 
    ##  6          5.4         3.9          1.7         0.4 setosa 
    ##  7          4.6         3.4          1.4         0.3 setosa 
    ##  8          5           3.4          1.5         0.2 setosa 
    ##  9          4.4         2.9          1.4         0.2 setosa 
    ## 10          4.9         3.1          1.5         0.1 setosa 
    ## # ... with 140 more rows

``` r
# Question 2 ----------------------------------------------

iris_cm <- mutate(new_iris, Sepal_Length = Sepal_Length * 10, Sepal_Width = Sepal_Width * 10, Petal_Length = Petal_Length * 10, Petal_Width = Petal_Width * 10)
iris_cm
```

    ## # A tibble: 150 x 5
    ##    Sepal_Length Sepal_Width Petal_Length Petal_Width Species
    ##           <dbl>       <dbl>        <dbl>       <dbl> <fct>  
    ##  1           51          35           14           2 setosa 
    ##  2           49          30           14           2 setosa 
    ##  3           47          32           13           2 setosa 
    ##  4           46          31           15           2 setosa 
    ##  5           50          36           14           2 setosa 
    ##  6           54          39           17           4 setosa 
    ##  7           46          34           14           3 setosa 
    ##  8           50          34           15           2 setosa 
    ##  9           44          29           14           2 setosa 
    ## 10           49          31           15           1 setosa 
    ## # ... with 140 more rows

``` r
# Question 3 ----------------------------------------------

iris_area <- mutate(iris_cm, Sepal_Area = Sepal_Length * Sepal_Width, Petal_Area = Petal_Length * Petal_Width)
iris_onlyarea <- select(iris_area, Sepal_Area, Petal_Area, Species)
iris_onlyarea
```

    ## # A tibble: 150 x 3
    ##    Sepal_Area Petal_Area Species
    ##         <dbl>      <dbl> <fct>  
    ##  1       1785         28 setosa 
    ##  2       1470         28 setosa 
    ##  3       1504         26 setosa 
    ##  4       1426         30 setosa 
    ##  5       1800         28 setosa 
    ##  6       2106         68 setosa 
    ##  7       1564         42 setosa 
    ##  8       1700         30 setosa 
    ##  9       1276         28 setosa 
    ## 10       1519         15 setosa 
    ## # ... with 140 more rows
…
    ## # A tibble: 3 x 8
    ##   Species    sampl_size mean_w str_dev   var   sem ci_upper ci_lower
    ##   <fct>           <int>  <dbl>   <dbl> <dbl> <dbl>    <dbl>    <dbl>
    ## 1 setosa             50   2.46    1.05  1.11 0.348     3.16     1.76
    ## 2 versicolor         50  13.3     1.98  3.91 1.88     17.0      9.51
    ## 3 virginica          50  20.3     2.75  7.54 2.87     26.0     14.5

``` r
iris_cm
```

    ## # A tibble: 150 x 5
    ##    Sepal_Length Sepal_Width Petal_Length Petal_Width Species
    ##           <dbl>       <dbl>        <dbl>       <dbl> <fct>  
    ##  1           51          35           14           2 setosa 
    ##  2           49          30           14           2 setosa 
    ##  3           47          32           13           2 setosa 
    ##  4           46          31           15           2 setosa 
    ##  5           50          36           14           2 setosa 
    ##  6           54          39           17           4 setosa 
    ##  7           46          34           14           3 setosa 
    ##  8           50          34           15           2 setosa 
    ##  9           44          29           14           2 setosa 
    ## 10           49          31           15           1 setosa 
    ## # ... with 140 more rows
…
